{
	"features": [
		{
			"id": "6863830667240702272",
			"reference_num": "SE-2",
			"name": "Authenticate via External emails",
			"created_at": "2021-03-04T19:49:16.398Z",
			"url": "https://saviynt-product.aha.io/features/SE-2",
			"resource": "https://saviynt-product.aha.io/api/v1/features/SE-2",
			"product_id": "6875789426184891835"
		},
		{
			"id": "6863830785726866280",
			"reference_num": "SE-3",
			"name": "Self-service Registration ( Onboarding form)",
			"created_at": "2021-03-04T19:49:33.534Z",
			"url": "https://saviynt-product.aha.io/features/SE-3",
			"resource": "https://saviynt-product.aha.io/api/v1/features/SE-3",
			"product_id": "6875789426184891835"
		},
		{
			"id": "6863830905412331697",
			"reference_num": "SE-5",
			"name": "Approve User",
			"created_at": "2021-03-04T19:50:00.623Z",
			"url": "https://saviynt-product.aha.io/features/SE-5",
			"resource": "https://saviynt-product.aha.io/api/v1/features/SE-5",
			"product_id": "6875789426184891835"
		},
		{
			"id": "6863834478566101969",
			"reference_num": "SE-21",
			"name": "Authorize - role based at interface level",
			"created_at": "2021-03-04T20:03:56.421Z",
			"url": "https://saviynt-product.aha.io/features/SE-21",
			"resource": "https://saviynt-product.aha.io/api/v1/features/SE-21",
			"product_id": "6875789426184891835"
		},
		{
			"id": "6863834624548711413",
			"reference_num": "SE-22",
			"name": "Buy Licenses",
			"created_at": "2021-03-04T20:04:19.401Z",
			"url": "https://saviynt-product.aha.io/features/SE-22",
			"resource": "https://saviynt-product.aha.io/api/v1/features/SE-22",
			"product_id": "6875789426184891835"
		},
		{
			"id": "6863834924643445080",
			"reference_num": "SE-24",
			"name": "Paid License",
			"created_at": "2021-03-04T20:05:28.285Z",
			"url": "https://saviynt-product.aha.io/features/SE-24",
			"resource": "https://saviynt-product.aha.io/api/v1/features/SE-24",
			"product_id": "6875789426184891835"
		},
		{
			"id": "6863835809565461354",
			"reference_num": "SE-26",
			"name": "Ratings",
			"created_at": "2021-03-04T20:08:53.959Z",
			"url": "https://saviynt-product.aha.io/features/SE-26",
			"resource": "https://saviynt-product.aha.io/api/v1/features/SE-26",
			"product_id": "6875789426184891835"
		},
		{
			"id": "6863842976015570068",
			"reference_num": "SE-31",
			"name": "Search by Popularity",
			"created_at": "2021-03-04T20:36:45.834Z",
			"url": "https://saviynt-product.aha.io/features/SE-31",
			"resource": "https://saviynt-product.aha.io/api/v1/features/SE-31",
			"product_id": "6875789426184891835"
		},
		{
			"id": "6863886102752391303",
			"reference_num": "SE-35",
			"name": "Sent email notification confirming",
			"created_at": "2021-03-04T23:24:10.074Z",
			"url": "https://saviynt-product.aha.io/features/SE-35",
			"resource": "https://saviynt-product.aha.io/api/v1/features/SE-35",
			"product_id": "6875789426184891835"
		},
		{
			"id": "6863886431878156514",
			"reference_num": "SE-36",
			"name": "Search on Multiple Fields",
			"created_at": "2021-03-04T23:25:19.758Z",
			"url": "https://saviynt-product.aha.io/features/SE-36",
			"resource": "https://saviynt-product.aha.io/api/v1/features/SE-36",
			"product_id": "6875789426184891835"
		},
		{
			"id": "6871935523916794400",
			"reference_num": "SE-37",
			"name": "SAVEX Icon on Saviynt.com ",
			"created_at": "2021-03-26T16:00:19.511Z",
			"url": "https://saviynt-product.aha.io/features/SE-37",
			"resource": "https://saviynt-product.aha.io/api/v1/features/SE-37",
			"product_id": "6875789426184891835"
		},
		{
			"id": "6880117586156173337",
			"reference_num": "PAM-1",
			"name": "PAM for Azure Console - Credential, Roles and Credential-less Access",
			"created_at": "2020-10-05T12:50:05.994Z",
			"url": "https://saviynt-product.aha.io/features/PAM-1",
			"resource": "https://saviynt-product.aha.io/api/v1/features/PAM-1",
			"product_id": "6876072787088932574"
		},
		{
			"id": "6881274427972880373",
			"reference_num": "SSM-10",
			"name": "Approval Insights",
			"created_at": "2020-10-08T15:39:14.223Z",
			"url": "https://saviynt-product.aha.io/features/SSM-10",
			"resource": "https://saviynt-product.aha.io/api/v1/features/SSM-10",
			"product_id": "6875070988381222176"
		},
		{
			"id": "6892145663950491136",
			"reference_num": "DI-2",
			"name": "Intelligence-based Global Search Design",
			"created_at": "2020-11-06T22:45:11.094Z",
			"url": "https://saviynt-product.aha.io/features/DI-2",
			"resource": "https://saviynt-product.aha.io/api/v1/features/DI-2",
			"product_id": "6875070988381222176"
		},
		{
			"id": "6903389546493374767",
			"reference_num": "INT-2",
			"name": "New Connector - Thycotic Vault",
			"created_at": "2020-12-07T05:57:11.501Z",
			"url": "https://saviynt-product.aha.io/features/INT-2",
			"resource": "https://saviynt-product.aha.io/api/v1/features/INT-2",
			"product_id": "6875917818875007960"
		},
		{
			"id": "6903540947377261888",
			"reference_num": "SSM-13",
			"name": "Delegation Rearchitecture",
			"created_at": "2020-12-07T15:44:42.266Z",
			"url": "https://saviynt-product.aha.io/features/SSM-13",
			"resource": "https://saviynt-product.aha.io/api/v1/features/SSM-13",
			"product_id": "6908237047375862132"
		},
		{
			"id": "6903578622814213790",
			"reference_num": "PAM-3",
			"name": "Frictionless experience with least privileged access for end users to provide one click session launch for just in time access",
			"created_at": "2020-12-07T18:10:54.261Z",
			"url": "https://saviynt-product.aha.io/features/PAM-3",
			"resource": "https://saviynt-product.aha.io/api/v1/features/PAM-3",
			"product_id": "6876072787088932574"
		},
		{
			"id": "6903650375865252016",
			"reference_num": "IN-6",
			"name": "Have a Report Builder (with a SQL Generator) ",
			"created_at": "2020-12-07T22:49:20.570Z",
			"url": "https://saviynt-product.aha.io/features/IN-6",
			"resource": "https://saviynt-product.aha.io/api/v1/features/IN-6",
			"product_id": "6901580533146485037"
		},
		{
			"id": "6903743914131808076",
			"reference_num": "INT-3",
			"name": "New Connector - JD Edwards",
			"created_at": "2020-12-08T04:52:19.149Z",
			"url": "https://saviynt-product.aha.io/features/INT-3",
			"resource": "https://saviynt-product.aha.io/api/v1/features/INT-3",
			"product_id": "6875917818875007960"
		},
		{
			"id": "6903744483676478799",
			"reference_num": "INT-4",
			"name": "ServiceNow CMDB Connector - New",
			"created_at": "2020-12-08T04:54:31.754Z",
			"url": "https://saviynt-product.aha.io/features/INT-4",
			"resource": "https://saviynt-product.aha.io/api/v1/features/INT-4",
			"product_id": "6875917818875007960"
		},
		{
			"id": "6903745088994046945",
			"reference_num": "INT-5",
			"name": "MS Dynamics 365 - HR (BU, Job, CostCenter,...)",
			"created_at": "2020-12-08T04:56:52.689Z",
			"url": "https://saviynt-product.aha.io/features/INT-5",
			"resource": "https://saviynt-product.aha.io/api/v1/features/INT-5",
			"product_id": "6875917818875007960"
		},
		{
			"id": "6903815258438898795",
			"reference_num": "PAM-4",
			"name": "PAM for SFDC - credential, PSM, Roles",
			"created_at": "2020-12-08T09:29:10.290Z",
			"url": "https://saviynt-product.aha.io/features/PAM-4",
			"resource": "https://saviynt-product.aha.io/api/v1/features/PAM-4",
			"product_id": "6876072787088932574"
		},
		{
			"id": "6903859542264977088",
			"reference_num": "PAM-5",
			"name": "Privileged access management of Active Directory",
			"created_at": "2020-12-08T12:21:00.916Z",
			"url": "https://saviynt-product.aha.io/features/PAM-5",
			"resource": "https://saviynt-product.aha.io/api/v1/features/PAM-5",
			"product_id": "6876072787088932574"
		},
		{
			"id": "6903867104909458809",
			"reference_num": "PAM-7",
			"name": "Validate \u0026 Test Windows Connections in connector",
			"created_at": "2020-12-08T12:50:21.734Z",
			"url": "https://saviynt-product.aha.io/features/PAM-7",
			"resource": "https://saviynt-product.aha.io/api/v1/features/PAM-7",
			"product_id": "6876072787088932574"
		},
		{
			"id": "6903868602793688230",
			"reference_num": "PAM-8",
			"name": "Scalable framework for viewing audits of any connected applications",
			"created_at": "2020-12-08T12:56:10.488Z",
			"url": "https://saviynt-product.aha.io/features/PAM-8",
			"resource": "https://saviynt-product.aha.io/api/v1/features/PAM-8",
			"product_id": "6876072787088932574"
		},
		{
			"id": "6904119213000698609",
			"reference_num": "INT-6",
			"name": "Workday - Ability to import and provision Workday Organization (entitlement type) along with usability standardization and improvisation",
			"created_at": "2020-12-09T05:08:40.220Z",
			"url": "https://saviynt-product.aha.io/features/INT-6",
			"resource": "https://saviynt-product.aha.io/api/v1/features/INT-6",
			"product_id": "6875917818875007960"
		},
		{
			"id": "6904127453470678228",
			"reference_num": "INT-7",
			"name": "Workday - Adding support for certificate based \u0026 OAuth (SOAP) based authentication",
			"created_at": "2020-12-09T05:40:38.859Z",
			"url": "https://saviynt-product.aha.io/features/INT-7",
			"resource": "https://saviynt-product.aha.io/api/v1/features/INT-7",
			"product_id": "6875917818875007960"
		},
		{
			"id": "6904278052138741140",
			"reference_num": "INT-8",
			"name": "QAD Connector - New",
			"created_at": "2020-12-09T15:25:02.842Z",
			"url": "https://saviynt-product.aha.io/features/INT-8",
			"resource": "https://saviynt-product.aha.io/api/v1/features/INT-8",
			"product_id": "6875917818875007960"
		},
		{
			"id": "6904324234557517445",
			"reference_num": "SSM-20",
			"name": "Manage Identity",
			"created_at": "2020-12-09T18:24:15.523Z",
			"url": "https://saviynt-product.aha.io/features/SSM-20",
			"resource": "https://saviynt-product.aha.io/api/v1/features/SSM-20",
			"product_id": "6875070988381222176"
		},
		{
			"id": "6904341143763458322",
			"reference_num": "SSM-21",
			"name": "Manage Identity - Manage Access for Others",
			"created_at": "2020-12-09T19:29:52.506Z",
			"url": "https://saviynt-product.aha.io/features/SSM-21",
			"resource": "https://saviynt-product.aha.io/api/v1/features/SSM-21",
			"product_id": "6875070988381222176"
		}
	],
	"pagination": {
		"total_records": 5669,
		"total_pages": 189,
		"current_page": 1
	}
}